\relax 
\select@language{english}
\@writefile{toc}{\select@language{english}}
\@writefile{lof}{\select@language{english}}
\@writefile{lot}{\select@language{english}}
\@writefile{toc}{\contentsline {title}{Klasifik\IeC {\'a}cia bankov\IeC {\'y}ch klientov}{1}}
\@writefile{toc}{\authcount {1}}
\@writefile{toc}{\contentsline {author}{ Bc. Michal Fa\IeC {\v s}\IeC {\'a}nek, Bc. Peter Hala\IeC {\v s}}{1}}
\@writefile{toc}{\contentsline {section}{\numberline {1}Opis probl\IeC {\'e}mu, motiv\IeC {\'a}cia}{1}}
\@writefile{toc}{\contentsline {section}{\numberline {2}Opis a charakteristiky d\IeC {\'a}t }{1}}
\citation{cit1}
\citation{cit2}
\citation{cit3}
\@writefile{toc}{\contentsline {section}{\numberline {3}Definovanie \IeC {\'u}lohy objavovania znalost\IeC {\'\i }}{2}}
\@writefile{toc}{\contentsline {section}{\numberline {4}Opis pr\IeC {\'a}c in\IeC {\'y}ch autorov}{2}}
\@writefile{toc}{\contentsline {section}{\numberline {5}Opis met\IeC {\'o}d}{3}}
\@writefile{toc}{\contentsline {subsection}{\numberline {5.1}Predspracovanie a v\IeC {\'y}ber atrib\IeC {\'u}tov}{3}}
\@writefile{toc}{\contentsline {subsubsection}{Delenie datasetu}{3}}
\@writefile{toc}{\contentsline {subsubsection}{\IeC {\v C}istenie d\IeC {\'a}t}{4}}
\@writefile{toc}{\contentsline {subsubsection}{V\IeC {\'y}ber atrib\IeC {\'u}tov}{4}}
\@writefile{toc}{\contentsline {subsubsection}{Normaliz\IeC {\'a}cia}{4}}
\@writefile{toc}{\contentsline {subsection}{\numberline {5.2}Met\IeC {\'o}dy klasifik\IeC {\'a}cie}{4}}
\@writefile{toc}{\contentsline {subsubsection}{Neur\IeC {\'o}nov\IeC {\'e} siete}{4}}
\@writefile{toc}{\contentsline {subsubsection}{KNN}{5}}
\@writefile{toc}{\contentsline {subsubsection}{Bayesovsk\IeC {\'a} klasifik\IeC {\'a}cia}{5}}
\@writefile{toc}{\contentsline {subsubsection}{Klasifik\IeC {\'a}cia pomocou podporn\IeC {\'y}ch vektorov}{5}}
\@writefile{toc}{\contentsline {subsection}{\numberline {5.3}Vyhodnotenie}{5}}
\bibcite{cit1}{1}
\bibcite{cit2}{2}
\bibcite{cit3}{3}
\@writefile{toc}{\contentsline {section}{\numberline {6}Experimenty}{6}}
\@writefile{toc}{\contentsline {subsection}{\numberline {6.1}Predspracovanie d\IeC {\'a}t}{6}}
\@writefile{toc}{\contentsline {subsection}{\numberline {6.2}Met\IeC {\'o}dy klasifik\IeC {\'a}cie}{6}}
\@writefile{toc}{\contentsline {subsection}{\numberline {6.3}Vyhodnotenie}{6}}
